Data wrangling
…
load our data

# load lifetime data
readr::read_csv(here::here("data/data_lifetime_pilot.csv")) 

# A tibble: 4,431 × 28
   RECORDING_SESSION_LABEL TRIAL_INDEX EYE_USED IA_DWELL_TIME
   <chr>                         <dbl> <chr>            <dbl>
 1 px7                               1 RIGHT                0
 2 px7                               2 RIGHT                0
 3 px7                               3 RIGHT                0
 4 px7                               3 RIGHT                0
 5 px7                               3 RIGHT                0
 6 px7                               3 RIGHT                0
 7 px7                               3 RIGHT                0
 8 px7                               3 RIGHT                0
 9 px7                               4 RIGHT                0
10 px7                               5 RIGHT                0
# ℹ 4,421 more rows
# ℹ 24 more variables: IA_FIRST_FIXATION_DURATION <dbl>,
#   IA_FIRST_RUN_DWELL_TIME <dbl>, IA_FIXATION_COUNT <dbl>, IA_ID <dbl>,
#   IA_LABEL <chr>, IA_REGRESSION_IN <dbl>, IA_REGRESSION_IN_COUNT <dbl>,
#   IA_REGRESSION_OUT <dbl>, IA_REGRESSION_OUT_COUNT <dbl>,
#   IA_REGRESSION_PATH_DURATION <dbl>, KeyPress <dbl>, rt <dbl>, bio <chr>,
#   critical <chr>, gender <chr>, item_id <dbl>, list <dbl>, match <chr>, …
…
round(
  range(df_lifetime$px_accuracy),
  2)

[1] 0.26 0.90

select()

keep only certain column(s)

df_lifetime %>%
  select(px)

# A tibble: 4,431 × 1
   px   
   <chr>
 1 px7  
 2 px7  
 3 px7  
 4 px7  
 5 px7  
 6 px7  
 7 px7  
 8 px7  
 9 px7  
10 px7  
# ℹ 4,421 more rows

df_lifetime %>%
  select(px, trial)

# A tibble: 4,431 × 2
   px    trial
   <chr> <dbl>
 1 px7       1
 2 px7       2
 3 px7       3
 4 px7       3
 5 px7       3
 6 px7       3
 7 px7       3
 8 px7       3
 9 px7       4
10 px7       5
# ℹ 4,421 more rows

select()

or remove certain columns

df_lifetime %>%
  select(-px, -trial)

# A tibble: 4,431 × 31
   eye      tt    ff    fp fix_count region_n region_text    reg_in reg_in_count
   <chr> <dbl> <dbl> <dbl>     <dbl>    <dbl> <chr>           <dbl>        <dbl>
 1 RIGHT     0     0     0         0        1 He owned innu…      0            0
 2 RIGHT     0     0     0         0        1 She is a moth…      0            0
 3 RIGHT     0     0     0         0        1 She                 0            0
 4 RIGHT     0     0     0         0        2 will perform        0            0
 5 RIGHT     0     0     0         0        3 in prestigiou…      0            0
 6 RIGHT     0     0     0         0        4 in the future,      0            0
 7 RIGHT     0     0     0         0        5 as reported i…      0            0
 8 RIGHT     0     0     0         0        6 as reported i…      0            0
 9 RIGHT     0     0     0         0        1 He interviewe…      0            0
10 RIGHT     0     0     0         0        1 She                 0            0
# ℹ 4,421 more rows
# ℹ 22 more variables: reg_out <dbl>, reg_out_count <dbl>, rpd <dbl>,
#   KeyPress <dbl>, rt <dbl>, bio <chr>, critical <chr>, gender <chr>,
#   item_id <dbl>, list <dbl>, match <chr>, condition <chr>, name <chr>,
#   lifetime <chr>, tense <chr>, type <chr>, yes_press <dbl>, new_column <chr>,
#   newer_column <chr>, accept <dbl>, accuracy <dbl>, px_accuracy <dbl>
…
df_crit %>%
  distinct(px, name)

# A tibble: 639 × 2
   px    name          
   <chr> <chr>         
 1 px7   Edith Piaf    
 2 px7   Aaliyah       
 3 px7   David Beckham 
 4 px7   Jana Novotna  
 5 px7   Grace Kelly   
 6 px7   Nigella Lawson
 7 px7   Coco Chanel   
 8 px7   Ben Kingsley  
 9 px7   Jim Carrey    
10 px7   Judy Garland  
# ℹ 629 more rows

df_crit %>%
  distinct(px, name,
           .keep_all=T)

# A tibble: 639 × 31
   px    trial eye      tt    ff    fp fix_count region_n region_text reg_in
   <chr> <dbl> <chr> <dbl> <dbl> <dbl>     <dbl>    <dbl> <chr>        <dbl>
 1 px7       3 RIGHT     0     0     0         0        1 She              0
 2 px7       5 RIGHT     0     0     0         0        1 She              0
 3 px7       8 RIGHT     0     0     0         0        1 He               0
 4 px7      10 RIGHT     0     0     0         0        1 She              0
 5 px7      13 RIGHT     0     0     0         0        1 She              0
 6 px7      16 RIGHT     0     0     0         0        1 She              0
 7 px7      18 RIGHT     0     0     0         0        1 She              0
 8 px7      21 RIGHT     0     0     0         0        1 He               0
 9 px7      23 RIGHT     0     0     0         0        1 He               0
10 px7      26 RIGHT     0     0     0         0        1 She              0
# ℹ 629 more rows
# ℹ 21 more variables: reg_in_count <dbl>, reg_out <dbl>, reg_out_count <dbl>,
#   rpd <dbl>, KeyPress <dbl>, rt <dbl>, bio <chr>, critical <chr>,
#   gender <chr>, item_id <dbl>, list <dbl>, match <chr>, condition <chr>,
#   name <chr>, lifetime <chr>, tense <chr>, type <chr>, yes_press <dbl>,
#   accept <dbl>, accuracy <dbl>, px_accuracy <dbl>

arrange()

sort column(s) in ascending or descending order

this is really just for ease of reading

# default: ascending order (A-Z)
df_crit %>%
  distinct(px, trial, name, condition) %>%
  arrange(px, trial)

# A tibble: 639 × 4
   px    trial name                    condition
   <chr> <dbl> <chr>                   <chr>    
 1 px1       3 Angela Merkel           livingPP 
 2 px1       5 Jennifer Lawrence       livingPP 
 3 px1       8 Chimamanda Ngozi Adichi livingPP 
 4 px1      10 Kurt Cobain             deadPP   
 5 px1      13 Charlie Chaplin         deadSF   
 6 px1      16 Edith Piaf              deadPP   
 7 px1      18 Bridgette Bardot        deadSF   
 8 px1      21 Grace Kelly             deadPP   
 9 px1      23 Martin Luther King Jr.  deadSF   
10 px1      26 Janet Jackson           livingPP 
# ℹ 629 more rows

# descending order (Z-A)
df_crit %>%
  distinct(px, trial, name, condition) %>%
  arrange(desc(px), trial)

# A tibble: 639 × 4
   px    trial name              condition
   <chr> <dbl> <chr>             <chr>    
 1 px8       3 Daniel Radcliffe  livingSF 
 2 px8       5 Maya Angelou      deadSF   
 3 px8       8 Margaret Thatcher deadSF   
 4 px8      10 Taylor Swift      livingSF 
 5 px8      13 Mariah Carey      livingSF 
 6 px8      16 James Cameron     livingPP 
 7 px8      18 Kate Middleton    livingSF 
 8 px8      21 Abraham Lincoln   deadPP   
 9 px8      23 Ingrid Bergman    deadSF   
10 px8      26 Helen Mirren      livingSF 
# ℹ 629 more rows
…
